....................
----------------------------------------------------------------------
Ran 20 tests in 5.423s

OK
Name             Stmts   Miss Branch BrPart  Cover   Missing
------------------------------------------------------------
Collatz.py          28      0     10      0   100%
TestCollatz.py      86      0      0      0   100%
------------------------------------------------------------
TOTAL              114      0     10      0   100%
