$ coverage report -m
Name             Stmts   Miss  Cover   Missing
----------------------------------------------
Collatz.py          31      0   100%
TestCollatz.py      83      0   100%
----------------------------------------------
TOTAL              114      0   100%
