1 10 20
100 200 125
201 210 89
900 1000 174
200 300 128
378 504 142
87 777 171
12 123 119
104 1000 179
18 1099 179
1 10099 262
78 3810 238
19 10944 262
19 10222 262
10 122 119
101 102 26
1 2 2
1 3 8
2 3 8
4 5 6
5 7 17
3 5 8
7 11 20
11 13 15
17 23 21
87 44 116
10099 566 262
7230 3 262
30 78920 351
303 3881 238
101 1011 179
227 1433 182
1399 1409 172
1499 1511 141
1699 1709 149
1721 1723 105
1723 1733 149
1831 1847 162
2311 2333 183
2357 2371 152
3109 3119 124
3301 3359 181
1500 10000 262
7050 9000 252
3323 3331 181
3361 3371 181
7000 7050 195
6890 7150 257
3359 3271 181
5573 5581 130
9100 15000 276
99890 4000 351
78901 6000 351
345 543 142
99999 99999 227
67 67 28
9865 789 262
8344 9012 247
22 8765 262
9898 9090 260
769 986 179
7171 8989 252
98765 50 351
890890 564 525
200400 8090 383
9898 200401 383
5611 6701 262
5611 6700 262
669 7799 262
849 92944 351
483 93999 351
38 3888 238
38 299 128
10 1001 179
298 1000 179
10 1000 179
20 2000 182
3 3000 217
8222 11 262
1111 1144 138
1011 1044 156
40 401 144
87011 102 351
2018 1994 144
4054 8429 262
4637 7791 262
973 77 179
1005 6800 262
6566 1492 262
4668 9199 262
9209 6122 262
9765 234 262
7376 7641 239
8244 48 262
463 277 144
5100 244 238
979 9573 262
1300 2000 180
1300 300 182
70001 6000 340
1136 4941 238
4352 8736 262
545 5411 238
2141 9606 262
8999 12 262
8999 15 262
118 532 144
62 5045 238
983 1065 169
6058 372 238
7718 882 262
700 920 179
650 651 101
700 700 83
901 901 55
1001 1001 143
19 233 128
19 19 21
199 199 120
904 90 179
60 1 113
999999 1 525
676767 686544 380
99554 989 351
7018 6000 262
800 1212 182
14 1414 182
17 1717 182
98 1080 179
876 88 179
45 4545 238
90 1901 182
666 6969 262
420 69 144
1109 101 179
170 203 125
10001 9000 260
897 1001 174
91 167 122
87 102 119
7 79 116
101 1099 179
